Advanced Data Visualization with R and ggplot2: Recreating the New York Times COVID Tracker-Nick Paul Blog
…
    for(i in 1:period-1){
        total = total + lag(x,i)
    }
    
    return(total/period)
    
}

df_ny_smooth = df_ny %>% 
    mutate(smooth = rolling_average(cases))

df_ny_smooth

## # A tibble: 703 x 6
##    date       state    fips  cases deaths smooth
##    <date>     <chr>    <chr> <dbl>  <dbl>  <dbl>
##  1 2020-03-01 New York 36        1      0   NA  
##  2 2020-03-02 New York 36        0      0   NA  
##  3 2020-03-03 New York 36        1      0   NA  
##  4 2020-03-04 New York 36        9      0   NA  
##  5 2020-03-05 New York 36       11      0   NA  
##  6 2020-03-06 New York 36       22      0   NA  
##  7 2020-03-07 New York 36       45      0   19.1
##  8 2020-03-08 New York 36       17      0   17.4
##  9 2020-03-09 New York 36       36      0   25.3
## 10 2020-03-10 New York 36       31      0   28.9
## # … with 693 more rows
…
